Action Service : GM Service [GM/Login]
----------------------------------------------------------------------------------------
Status : Success (1)
----------------------------------------------------------------------------------------
Message : ทำรายการสำเร็จ
----------------------------------------------------------------------------------------
Input Data : {"UserId":"test123","UserPassword":"test1234"}
----------------------------------------------------------------------------------------
Output Data : {"UserData":[{"UUID":"6618c8df-4495-47af-99bf-3cfe08470e8e","TOKEN":"eyJhbGciOiJIUzI1NiIsInR5cCI6IkpXVCJ9.eyJzdWIiOiJ0ZXN0MTIzIiwianRpIjoiMThlNTkxODgtZDBiZi00NjEyLTgyNGMtYmRmNDg3ZDk2N2Y5IiwiZXhwIjoxNjE3ODAzNzU4LCJpc3MiOiJEZ2FEZXYiLCJhdWQiOiJEZ2FEZXYifQ.efNETa0AzJsje8_nbFNsyWVUmKNFbeAhDyZ85R6mWE4","USER_EMAIL":"user@domain.com","USER_NAME":"test123","USER_LASTNAME":"testtest","USER_COMPANY":"test.Co.ltn"}]}
