Action Service : GM Service [GM/GetTRANBWC]
----------------------------------------------------------------------------------------
Status : Failed (1)
----------------------------------------------------------------------------------------
Message : ทำรายการสำเร็จ
----------------------------------------------------------------------------------------
Input Data : ""
