Action Service : GM Service [GM/Login]
----------------------------------------------------------------------------------------
Status : Success (1)
----------------------------------------------------------------------------------------
Message : ทำรายการสำเร็จ
----------------------------------------------------------------------------------------
Input Data : {"UserId":"methawinsss","UserPassword":"123456"}
----------------------------------------------------------------------------------------
Output Data : {"UserData":[{"UUID":"edbbfedf-587e-409e-aac2-090a4fad1c3f","TOKEN":"eyJhbGciOiJIUzI1NiIsInR5cCI6IkpXVCJ9.eyJzdWIiOiJtZXRoYSIsImp0aSI6ImNiZmE0NTU2LTEwMWItNDNjZC1iNmFjLWRkMThhNzFhMTZhOSIsImV4cCI6MTYxNzkxNzM5NCwiaXNzIjoiRGdhRGV2IiwiYXVkIjoiRGdhRGV2In0.LsCGlt_99-JAK3kk7uwk5fiaQEnJ8gUm4wORQPzzP-A","USER_EMAIL":"test@test.com","USER_NAME":"metha","USER_LASTNAME":"sung","USER_COMPANY":"ทดสอบบบ"}]}
