Action Service : GM Service [GM/Login]
----------------------------------------------------------------------------------------
Status : Success (1)
----------------------------------------------------------------------------------------
Message : ทำรายการสำเร็จ
----------------------------------------------------------------------------------------
Input Data : {"UserId":"ratchaphoom123","UserPassword":"ratchaphoom1234"}
----------------------------------------------------------------------------------------
Output Data : {"UserData":[{"UUID":"bd0cd527-d9bb-4d43-8252-2c5b394bc16c","TOKEN":"eyJhbGciOiJIUzI1NiIsInR5cCI6IkpXVCJ9.eyJzdWIiOiJSYXRjaGFwaG9vbSIsImp0aSI6IjZmODI3NTg1LTMzMjctNGU3Ny1iYTIyLTUxOTU4ZDM0ZjZiMCIsImV4cCI6MTYxNzkxMDY2NywiaXNzIjoiRGdhRGV2IiwiYXVkIjoiRGdhRGV2In0.cdRjlLRJ-Hq3pCF0HAmGhEaa-zABaU5NeCL2-2m4rWA","USER_EMAIL":"ratcha@email.com","USER_NAME":"Ratchaphoom","USER_LASTNAME":"Boonnaka","USER_COMPANY":"ratchaphoomcompany"}]}
