Action Service : GM Service [GM/InsUserFeedBack]
----------------------------------------------------------------------------------------
Status : Failed (1)
----------------------------------------------------------------------------------------
Message : ทำรายการสำเร็จ
----------------------------------------------------------------------------------------
Input Data : {"UUID":"6618c8df-4495-47af-99bf-3cfe08470e8e","FEEDBACK":"testsendfeed"}
