Action Service : GM Service [GM/GetLogs]
----------------------------------------------------------------------------------------
Status : Failed (1)
----------------------------------------------------------------------------------------
Message : ทำรายการสำเร็จ
----------------------------------------------------------------------------------------
Input Data : ""
